<svg
   xmlns:dc="http://purl.org/dc/elements/1.1/"
   xmlns:cc="http://creativecommons.org/ns#"
   xmlns:rdf="http://www.w3.org/1999/02/22-rdf-syntax-ns#"
   xmlns:svg="http://www.w3.org/2000/svg"
   xmlns="http://www.w3.org/2000/svg"
   xmlns:sodipodi="http://sodipodi.sourceforge.net/DTD/sodipodi-0.dtd"
   xmlns:inkscape="http://www.inkscape.org/namespaces/inkscape"
   width="2445.6599"
   height="561.82635"
   viewBox="0 0 647.08085 148.64989"
   version="1.1"
   id="svg8"
   inkscape:version="1.0.1 (3bc2e81, 2020-09-07)"
   sodipodi:docname="logo.svg">
  <defs
     id="defs2" />
  <sodipodi:namedview
     id="base"
     pagecolor="#ffffff"
     bordercolor="#666666"
     borderopacity="1.0"
     inkscape:pageopacity="0.0"
     inkscape:pageshadow="2"
     inkscape:zoom="0.49497475"
     inkscape:cx="1351.5659"
     inkscape:cy="275.90496"
     inkscape:document-units="mm"
     inkscape:current-layer="layer1"
     inkscape:document-rotation="0"
     showgrid="false"
     units="px"
     inkscape:window-width="2488"
     inkscape:window-height="1376"
     inkscape:window-x="1992"
     inkscape:window-y="27"
     inkscape:window-maximized="1" />
  <metadata
     id="metadata5">
    <rdf:RDF>
      <cc:Work
         rdf:about="">
        <dc:format>image/svg+xml</dc:format>
        <dc:type
           rdf:resource="http://purl.org/dc/dcmitype/StillImage" />
        <dc:title />
      </cc:Work>
    </rdf:RDF>
  </metadata>
  <g
     inkscape:label="Layer 1"
     inkscape:groupmode="layer"
     id="layer1"
     transform="translate(-140.88475,-90.636171)">
    <path
       id="ellipse835"
       style="fill:none;stroke:#000000;stroke-width:25.0126;stroke-linecap:square;stroke-linejoin:round;stroke-miterlimit:4;stroke-dasharray:none;stroke-opacity:1;paint-order:stroke markers fill"
       transform="matrix(0.72281882,-0.6910376,-0.72281882,-0.6910376,0,0)"
       d="M 93.280497,-254.12883 A 63.577957,63.57795 0 0 1 26.327722,-207.248 63.577957,63.57795 0 0 1 -31.467118,-265.04283 63.577957,63.57795 0 0 1 15.41372,-331.9956" />
    <text
       xml:space="preserve"
       style="font-weight:bold;font-size:50.8px;line-height:1.25;font-family:Montserrat;-inkscape-font-specification:'Montserrat Bold';stroke-width:0.264583"
       x="296.08243"
       y="218.62965"
       id="text842"><tspan
         sodipodi:role="line"
         id="tspan840"
         x="296.08243"
         y="218.62965"
         style="stroke-width:0.264583" /></text>
    <g
       aria-label="mp"
       id="text846"
       style="font-weight:bold;font-size:105.833px;line-height:1.25;font-family:Montserrat;-inkscape-font-specification:'Montserrat Bold';letter-spacing:-5.29167px;stroke-width:0.264583">
      <path
         d="m 333.81887,137.93955 q 10.68913,0 16.93328,6.34998 6.34998,6.24414 6.34998,18.83827 v 32.59657 h -16.50995 v -30.05658 q 0,-6.77331 -2.85749,-10.05413 -2.75166,-3.38666 -7.93748,-3.38666 -5.82081,0 -9.20747,3.80999 -3.38665,3.70416 -3.38665,11.11247 v 28.57491 h -16.50995 v -30.05658 q 0,-13.44079 -10.79497,-13.44079 -5.71498,0 -9.10164,3.80999 -3.38665,3.70416 -3.38665,11.11247 v 28.57491 h -16.50995 v -56.93816 h 15.76912 v 6.56165 q 3.17499,-3.59832 7.72581,-5.50332 4.65665,-1.90499 10.15996,-1.90499 6.03248,0 10.9008,2.43416 4.86832,2.32832 7.83164,6.87914 3.49249,-4.44498 8.78414,-6.87914 5.39749,-2.43416 11.74747,-2.43416 z"
         style="font-size:105.833px;stroke-width:0.264583"
         id="path2185" />
      <path
         d="m 400.28194,137.93955 q 7.93748,0 14.39329,3.70415 6.56165,3.59832 10.2658,10.2658 3.70416,6.56165 3.70416,15.34579 0,8.78414 -3.70416,15.45162 -3.70415,6.56164 -10.2658,10.2658 -6.45581,3.59832 -14.39329,3.59832 -10.9008,0 -17.14494,-6.87915 v 26.56409 h -16.50995 v -77.46976 h 15.76912 v 6.56165 q 6.13831,-7.40831 17.88577,-7.40831 z m -2.85749,45.08486 q 6.34998,0 10.37164,-4.23332 4.12748,-4.33916 4.12748,-11.5358 0,-7.19665 -4.12748,-11.42997 -4.02166,-4.33915 -10.37164,-4.33915 -6.34998,0 -10.47747,4.33915 -4.02165,4.23332 -4.02165,11.42997 0,7.19664 4.02165,11.5358 4.12749,4.23332 10.47747,4.23332 z"
         style="font-size:105.833px;stroke-width:0.264583"
         id="path2187" />
    </g>
    <path
       id="ellipse897"
       style="fill:none;stroke:#000000;stroke-width:15.00758101;stroke-linecap:square;stroke-linejoin:round;stroke-miterlimit:4;stroke-dasharray:none;stroke-opacity:1;paint-order:stroke markers fill"
       transform="matrix(-0.72281882,-0.6910376,0.72281882,-0.6910376,0,0)"
       d="m -417.39249,208.83042 a 24.900684,24.900682 0 0 1 -26.22245,18.36116 24.900684,24.900682 0 0 1 -22.63569,-22.63569 24.900684,24.900682 0 0 1 18.36116,-26.22245" />
    <g
       aria-label="nents"
       id="text901"
       style="font-weight:bold;font-size:105.833px;line-height:1.25;font-family:Montserrat;-inkscape-font-specification:'Montserrat Bold';letter-spacing:-5.29167px;stroke-width:0.264583">
      <path
         d="m 537.98848,137.93955 q 10.5833,0 17.03911,6.34998 6.56164,6.34998 6.56164,18.83827 v 32.59657 h -16.50994 v -30.05658 q 0,-6.77331 -2.96333,-10.05413 -2.96332,-3.38666 -8.57247,-3.38666 -6.24415,0 -9.9483,3.91582 -3.70416,3.80999 -3.70416,11.42997 v 28.15158 h -16.50995 v -56.93816 h 15.76912 v 6.66748 q 3.28082,-3.59832 8.14914,-5.50332 4.86832,-2.01082 10.68914,-2.01082 z"
         style="font-size:105.833px;stroke-width:0.264583"
         id="path2192" />
      <path
         d="m 627.62885,167.46695 q 0,0.3175 -0.3175,4.44499 h -43.07403 q 1.16417,5.29165 5.50332,8.36081 4.33915,3.06915 10.79497,3.06915 4.44498,0 7.83164,-1.26999 3.49249,-1.37583 6.45581,-4.23332 l 8.78414,9.52497 q -8.04331,9.20747 -23.49493,9.20747 -9.6308,0 -17.03911,-3.70416 -7.40831,-3.80998 -11.42996,-10.47746 -4.02166,-6.66748 -4.02166,-15.13412 0,-8.36081 3.91582,-15.02829 4.02166,-6.77331 10.9008,-10.47746 6.98498,-3.80999 15.55745,-3.80999 8.36081,0 15.13412,3.59832 6.77331,3.59832 10.5833,10.37163 3.91582,6.66748 3.91582,15.55745 z m -29.5274,-17.03911 q -5.60915,0 -9.41914,3.17499 -3.80999,3.17499 -4.65665,8.67831 h 28.04574 q -0.84666,-5.39749 -4.65665,-8.57248 -3.80999,-3.28082 -9.3133,-3.28082 z"
         style="font-size:105.833px;stroke-width:0.264583"
         id="path2194" />
      <path
         d="m 667.95106,137.93955 q 10.5833,0 17.03911,6.34998 6.56165,6.34998 6.56165,18.83827 v 32.59657 h -16.50995 v -30.05658 q 0,-6.77331 -2.96332,-10.05413 -2.96333,-3.38666 -8.57248,-3.38666 -6.24414,0 -9.9483,3.91582 -3.70415,3.80999 -3.70415,11.42997 v 28.15158 h -16.50995 v -56.93816 h 15.76912 v 6.66748 q 3.28082,-3.59832 8.14914,-5.50332 4.86832,-2.01082 10.68913,-2.01082 z"
         style="font-size:105.833px;stroke-width:0.264583"
         id="path2196" />
      <path
         d="m 737.90665,192.97271 q -2.43416,1.79916 -6.03248,2.75166 -3.49249,0.84666 -7.40831,0.84666 -10.15997,0 -15.76912,-5.18582 -5.50331,-5.18581 -5.50331,-15.23995 v -23.38909 h -8.78414 v -12.69996 h 8.78414 v -13.86413 h 16.50994 v 13.86413 H 733.885 v 12.69996 h -14.18163 v 23.17742 q 0,3.59833 1.79916,5.60915 1.905,1.905 5.29165,1.905 3.91583,0 6.66748,-2.11666 z"
         style="font-size:105.833px;stroke-width:0.264583"
         id="path2198" />
      <path
         d="m 761.08401,196.57103 q -7.09081,0 -13.86413,-1.69333 -6.77331,-1.79916 -10.79496,-4.44498 l 5.50331,-11.8533 q 3.80999,2.43416 9.20748,4.02165 5.39748,1.48167 10.5833,1.48167 10.47746,0 10.47746,-5.18582 0,-2.43416 -2.85749,-3.49249 -2.85749,-1.05833 -8.78414,-1.79916 -6.98498,-1.05833 -11.53579,-2.43416 -4.55082,-1.37583 -7.93748,-4.86832 -3.28082,-3.49249 -3.28082,-9.9483 0,-5.39748 3.06915,-9.52497 3.17499,-4.23332 9.10164,-6.56165 6.03248,-2.32832 14.18162,-2.32832 6.03249,0 11.95913,1.37583 6.03248,1.26999 9.94831,3.59832 l -5.50332,11.74746 q -7.51414,-4.23332 -16.40412,-4.23332 -5.29165,0 -7.93747,1.48166 -2.64583,1.48167 -2.64583,3.80999 0,2.64583 2.8575,3.70416 2.85749,1.05833 9.10163,2.01082 6.98498,1.16417 11.42997,2.54 4.44498,1.26999 7.72581,4.76248 3.28082,3.49249 3.28082,9.73664 0,5.29165 -3.17499,9.41913 -3.17499,4.12749 -9.3133,6.45582 -6.03249,2.22249 -14.39329,2.22249 z"
         style="font-size:105.833px;stroke-width:0.264583"
         id="path2200" />
    </g>
    <path
       id="ellipse915"
       style="fill:none;stroke:#000000;stroke-width:15.00758101;stroke-linecap:square;stroke-linejoin:round;stroke-miterlimit:4;stroke-dasharray:none;stroke-opacity:1;paint-order:stroke markers fill"
       transform="matrix(-0.72281882,-0.6910376,0.72281882,-0.6910376,0,0)"
       d="m -249.74475,41.182697 a 24.900684,24.900682 0 0 1 -26.22245,18.361157 24.900684,24.900682 0 0 1 -22.6357,-22.63569 24.900684,24.900682 0 0 1 18.36116,-26.22245" />
  </g>
</svg>
